name,price,origin,dest,dep_time,arr_time
John,132,DUB,ORK,11:00,17:00
Sarah ,32,SNN,ORK,12:00,18:00
Clare,45,ORK,PAR,13:00,19:00
Simon ,234,PAR,DUB,14:00,20:00
Tom ,632,PAR,LON,15:00,21:00
Cara,800,DUB,LON,16:00,22:00
Kevin ,165,SHN,DUB,17:00,23:00
Jason ,144,LDN,FAO,18:00,00:00
Aoife ,401,FAO,LDN,19:00,01:00
Paul,99,FAO,DUB,20:00,02:00